$ANSIBLE_VAULT;1.1;AES256
61383765626237653462333337396438383065333737376334653161313030376161633064373338
6233636236616634623738633363636461653964386135650a303361323332643438343364656237
35333163353739623662313531356564653633363639393332323435613937303362323339323162
3537616633316532620a353835653435313534653635623639313733663532653739643763336631
34633064343530366131323162643135393434616561316430643665376466303039626631366630
33376634306663366635346562306266326263343865656665613536613764373037346134396439
65313862613734393864363262373330653236396465333439643336316630336162343532353865
64376433643466356131396333633163626530383666633636363235643065383661336666613865
35316336303139333131666234643736313834306330303532363665343063636631633561313939
36656633383631633365343161646538383465313635396566623338313533653431323031383737
66326237366436306564343235646630653063353163303465373531336335383730663138646264
37663862363366643237383132336164666434323761643832663866353639373234313033353062
34633762306538626435636135396663343565366565333138656161303066653462353334353261
65623966663338363138383130356362376436373161636534346564383965303934666364333366
66303932613238666133303838393663623632373538653435633731333734383537626135316234
37376366643365313737666663623037333837343962653730623031303464613635303431336464
37386536353066393863363536353536343936306463613839383235616363376362396436316337
63623533313462633365376333303731306633316666346262383237303262323937383632396334
34623030366537376538353166393061303266303665393335376432626364303333656461656265
34343637353838333962663932313662323863663938346565333664323663663664363264326164
39666264613335643461666664656365613737383065643364353030373434313562636633643164
32323462643735636363306334353434656638653938633034346631383866353765646438666536
36396237633936316161616265653030633234653366323335326132356564376636633531333630
63626561393366396163393865396561383234343866333338386534303739383135373036663136
3632
